/* XPM */
static char * seahorse_xpm[] = {

/* width height num_colors chars_per_pixel */
"80 143 11 1",

/* Colors: */
" 	c None",
".	c #6A1715",
"+	c #D8A779",
"@	c #443002",
"#	c #CED1CB",
"$	c #C5884C",
"%	c #864A32",
"&	c #C26523",
"*	c #629AC2",
"=	c #604002",
"-	c #6A96A2",

/* Pixels: */
"                                             .    +. .   ..                     ",
"                                        .@ ..+   .#...$  .$.                    ",
"                                     @  @+ .%&.   @ .#@ @#.@                    ",
"                                    @.. @ @ ..$. ..%.@ .+..                     ",
"                                    @... @.. @#@ .$.#+ .@.$.                    ",
"                                  .  @#.. %.  ..@$..@  ...$@                    ",
"                                . @. . .@..@@.%#@.#@@  @$$*@                    ",
"                               @   @@@.##%...@@*$@#@   .#$#.                    ",
"                               @     @@@+..$.%.$#@@@%@ .$$.                     ",
"                              @@@@@@@@.##$#$&$$%$$$@.+@$.@.                     ",
"                               ..@&$&$.$.$.+ #+$+$&#@#.%$$.@                    ",
"                                @@...$.$..$$#.@&$$=@@@$..%.@@                   ",
"                   ...           @.@#...$@&@.%$$$@###@.%@&%..                   ",
"                   =&%.       @....@.%...$.%.@$@@#####@@#.$...@                 ",
"                   ==.&.=.@  @#@##$.+..%.%.%$@+@##%@@##@#%+%$..@.               ",
"                    ...&&&#@.#+# #&.$@.#..@+@++%##@@%##@#$$...@.                ",
"                     . .. ##+##.&+#+#.&$.@.@+++@##@@@##@@+%....@@@.             ",
"                         %+$#+$+.++$.$.#.@%.@@@+%#####@%..%.%......@@@     @@@. ",
"               . ..     ..+#$&+.$&@+++@+.@&@@.@@@@###%@.@@.&&@&..&........@@... ",
"              .= %.==.  =+$#@$+.$..@++@@.@.@%@@@@@@@%&%..%..@%..@@%...%.@...%.. ",
"              .==. **..=+&&...+..$@@@@+@.@@.+.$@.@$.@.%.%..+$..%......@..%&.@.. ",
"                 .. &&%%%+$.$#@..@@..++@@.#@@.@.%.@%.$.&%...%&$..@@.@@@@.@.@.@..",
"              .=. .=. $&.$&+$+&@.+@+++@+.+@&+.@$@$$.%.%@+$&....+$.%@@.@..#@.@.%.",
"            = .... .=. +$@@@+++##+#$+@+@@+@@+##&+@#$...###&%.%...$$@.@@..@...@. ",
"            == .%... =%*%..& ###+#++@@@@@...@@++++++@+++##.....%.%.@.@@.%..%@.  ",
"             =. $+%..*%+$*+&+$+###++..@..%..@.@@@@.@@@...@.@@            @@     ",
"             .== &+$%%%&.&$@.&$+@+#+..%@..%.%@@..@@     .@                      ",
"          .... .=..@%#%.@&+&+&++++++$@.%......@.                                ",
"          =$$%=  @=%$&@..+$&$+#$+&$..@.@@.%@@.%                                 ",
"          .+&$%====#&*...&+#+@@&$+ =    .@..                                    ",
"        .  ..  .+%+#&+&%+@&&+$+&&&$     ..%                                     ",
"        ==     =&%$+%@@$&#@&$+&&&.                                              ",
"       ...==%. @=%%...=&$&&$+@$@&=                                              ",
"       .=.%%%.%@.*+%++++&$&&$++++=                                              ",
"        .=.**+$*$+@.&#+&+&+++&#+=                                               ",
"         ==&&#&+#$%.@$+$&$$&+#++=                                               ",
"      =.   =.@&@&&%=.&+$+&+$+&++=                                               ",
"      =$    =.&$$++$$+++#++&#+++=                                               ",
"       ..%.  &.$+$$#++&+&$#&+#+#+=                                              ",
"     .  ##.=%=.%$$&$++$#++#@&+++$=                                              ",
"      ==&&**$**+%$@@+&++$#++.&#+*..                                             ",
"       .=.=%+&$$+&..+#&$+&+++#+$#-.                                             ",
"      ...%...&+%$&&%+#+$+++$+$#+$*.                                             ",
"     &= ..$#..&+#%%+$+$%+$+#&##&%$#=                                            ",
"     +*=$=.++%*$$#%*+*$+$&+$++##+%#*                                            ",
"     .. +$%%*$+$@@+&+$+++$&$+$+###$*.                                           ",
"      === &&%+$@=.+$+++++#++$@@++#++#.                                          ",
"     .=%%==.&&$%..&##++#+#++&&$++&+$%&                                          ",
"      ...%%**++#%%+++$#++#+#+++#+$&+%%.                                         ",
"          .&&#.+%$+##+##++#+#&$++&+$$**=                                        ",
"           =%$%&%++##+++#++$+$&+#+#&$*#..                                       ",
"         ..%$++#+####++$+#++++$+##+++$*-.                                       ",
"    &.=.#*###+#+#+#+#++++#+#$&+######$+#.                                       ",
"     .$+++#+###&#+#+#+#++#+++#&$++++#$$*#=                                      ",
"     .=..&$+&#@..$&++#+#&+$+#&&@.+#&++*++$.                                     ",
"       ==.%%.$.=.&#++###+++$+++@@+&#&#**%..                                     ",
"          .$%&=%%#+++++&$+#&#$+#&++&+$$*#==                                     ",
"          =%+%%&+##$++&+&$++&+++#$+#&+#$*#=                                     ",
"         ==%$$%%++++&+$&+@@$&&$+&&++$+&%+#=                                     ",
"       .  %%%%$--##$++#@&&&&+$+$#+##+&+$##=                                     ",
"     =+##$+#*++##+##&+++#&+@&&&++$+$#+#$#*.                                     ",
"      .&#&&&%%@@$+&+&$++&$+#+@+$#++&#+&+++$=                                    ",
"        ===&+&%.=&+#+$++&+&+$&+#+++++#-#.##.                                    ",
"         =##++.==$$+##++$&#&$++&$###++&++$#$=                                   ",
"        =$@@$%..%++##+++&&+$@+#+@&@+$&#+$+&+.                                   ",
"       =&...%%%%%+$+#$++$&@&#+++@@&$&&$++$$%.                                   ",
"      .#%$+#.%$.$#$+%&$&&$&+++$+&&+&+&&#+$+.                                    ",
"      = ==.$$$$$+###+#+&+&$+$&&++##$++&&%&*=                                    ",
"          =%%+.%&#######++$&&$+##+#+#$+$$+%.                                    ",
"         .&#$&$..@#&&&+#####+++++##+&+&+$%#*.                                   ",
"        ==##%#&.=.$+%+%$+##++++#+#+###+#%+$*.                                   ",
"      =..###%$%=.##+$$&$++#++#+$+##+#++#+*#*.                                   ",
"     =$+#&###+$%%++%*&&$+#++#+#++###+####++$%=                                  ",
"     =@..%%#$#%+*+++&$&++++++#+#+$+$+&#+#+%&*=                                  ",
"      ==.%*##+#+*#+#+%&$++++++##+@@+#+&+$%&+=.                                  ",
"        =#$+#$%&###+#++%&%% $+&$#%&#$+#&$*&%=                                   ",
"        .##$+-+%+$$%%&$+$$+#$&+++#$+#&+##+*.                                    ",
"      =.$###$#&&&..$+%%%%$&####+#&#+##&+$*$=                                    ",
"  ..%%$+%+####+.=.++++$&.$#+#+$#++++$++*+*%.                                    ",
"  &&& $=.=%##&#@=&+.&.+%%$#-+++#&+#+$$&+$$.                                     ",
"  &.====.%++#$+++$%$+%%%++&+##+$+-+#+#%$%*.                                     ",
"   .   .%#+@..@.&$+$$%++.%%@++++#&$&++$+&$=                                     ",
"        =.&=$%%&&..$&$%+%%%%.%$.=.$+*+%$+#=                                     ",
"         .=.#++$.%%%++$+$$+&%$#..+#$+$#$#..                                     ",
"       =..%#*$%*$#.%%+$++$%*%+*$*$+&***#+.                                      ",
"      =$$$& &$& &&%$####$+%+#++&$%#$+$&..                                       ",
"      =====..%+*%=+$$&$*+&*+&@=*+%#+$.==.                                       ",
"           . %#+%%$$..+#+#$+%=...%#.=                                           ",
"       ..=..-++%+&%@$$#+##*$%==== %=                                            ",
"       .&#=..+%$%$+$##$#-#+#%== .=.                                             ",
"        .=%%%%%%..%$&$&++$##%=                                                  ",
"              %% =..%=%###$##%                                                  ",
"             .%%$$&%%$##+#+&#=                                                  ",
"           & .$%%-%%&+$####+#=                                                  ",
"          =.#$+%++.$+=@#####+=                                                  ",
"         =..@..-$.%%%.%+#++##.                                                  ",
"           .@=$$#%$$$$#+#####=                                                  ",
"             $$%$$##+$#####+#.                                                  ",
"      =%&   =#+$#&$++=$#+####=                                                  ",
"      =$%..%####.+&&#$.-##+##=                                                  ",
"       .#$%#%&=$$%+%$$+#####$                                                   ",
"       ==.=#-..#$$%&##$$#+##%                                                   ",
"        =..%%%$%.%%$$&%$-###%                                                   ",
"           ==.$#$++%$#####+#%                                                   ",
"           =%==%$*$$$#$$####%                                                   ",
"           ....$%.&%$$%$++##&                                                   ",
"              =*%.%%##**####$                                                   ",
"            =$%..$%%$%######%                                                   ",
"            =. =$$.+#$#+-+##$                                                   ",
"               =+$*$#++#####%                                                   ",
"        ....   #+$#$$+=%+#+#+                                                   ",
"       .%+#$.  $+$-##$$-$###+                                                   ",
"       &####$  %%$%$$####$##%                                                   ",
"      .%$-#$..=%$.+#$$@####-%                                                   ",
"      %$#-$#= =#$$$-+#$##+##=                                                   ",
"     =--#$%=  =.$+$###$####-                                                    ",
"     %#-$*=   =##*$#%$##*###.                                                   ",
"    .=%#$%.   %%#$-#*$####-+.                                                   ",
"    .&.$+-.   &-=%$#$##+##%=                                                    ",
"    ==-%&.%  .%#%$*$%###+#-=                                                    ",
"   .%=..+.%  .%%$#*$#######=                                                    ",
"   =+.$%=&.  &-#--%-#*##+#-=                                                    ",
"  ==&==.+=.  =$$#$-+#####$%.                                                    ",
"  .&..%=%=   $$*$-%##+###%=                                                     ",
" .%=%&=+&=  =##*-$%$###+*%=                                                     ",
" .+==.+%=.  $$$%#-##*###%&                                                      ",
" .=%&%==&= ==#*#+$#####++=                                                      ",
" %&==%&+===%%-#=-######.=&                                                      ",
" ===%==%%%$%%#-##+#+###+%.                                                      ",
" =&=+%=&+=$##$-######+-.=                                                       ",
" &==&==%%=$##+###*###$&+                                                        ",
" =%==+%&%&$###-###*$#*%=                                                        ",
" =+=%===%=%#+#+##$**$&=                                                         ",
" %=&=+%+&=&-###-###$$+.                                                         ",
" =%==&==%+==-#+-++**&=                                                          ",
" &==&==%==%=*$$-*#-.=                                                           ",
" .+==%&=&=+&%.*$%=.&                                                            ",
"  =%&=+=%%=%=&.+.&=.                                                            ",
"  .=+%==+=&==%=%%=                                                              ",
"    =&=&%&=%&+=+=                                                               ",
"     ===+=+=&%==.                                                               ",
"      .%=&%===&                                                                 ",
"                                                                                "};
