/* XPM */
static char * small_arrows_xpm[] = {

/* width height num_colors chars_per_pixel */
" 32 280 5 1",

/* colors */
".	c #FFFFFF",
"+	c #000000",
"@	c #0000CF",
"#	c #0000FF",
"$	c #007FFF",

/* pixels */
"................................",
".++++++++++++++++++++++++++++++.",
".++++++++++++++++++++++++++++++.",
".++++++++++++++++++++++++++++++.",
".++++++++++++++++++++++++++++++.",
".++++++++++++++++++++++++++++++.",
".++++++++++++++++++++++++++++++.",
".++++++++++++++++++++++++++++++.",
".++++++++++++++++@@++++++++++++.",
".++++++++++++++++@@@+++++++++++.",
".++++++++++++++++@#@@++++++++++.",
".+++++@@@@@@@@@@@@##@@+++++++++.",
".+++++@@@@@@@@@@@@###@@++++++++.",
".+++++@@##############@@+++++++.",
".+++++@@###############@@++++++.",
".+++++@@################@$+++++.",
".+++++@@################$$+++++.",
".+++++@@###############$$++++++.",
".+++++@@##############$$+++++++.",
".+++++@$$$$$$$$$$@###$$++++++++.",
".+++++$$$$$$$$$$$@##$$+++++++++.",
".++++++++++++++++@#$$++++++++++.",
".++++++++++++++++@$$+++++++++++.",
".++++++++++++++++$$++++++++++++.",
".++++++++++++++++++++++++++++++.",
".++++++++++++++++++++++++++++++.",
".++++++++++++++++++++++++++++++.",
".++++++++++++++++++++++++++++++.",
".++++++++++++++++++++++++++++++.",
".++++++++++++++++++++++++++++++.",
".++++++++++++++++++++++++++++++.",
"................................",
".++++++++++++++++++++++++++++++.",
".++++++++++++++++++++++++++++++.",
".++++++++++++++++++++++++++++++.",
".++++++++++++++++++++++++++++++.",
".++++++++++++++++++++++++++++++.",
".+++++++++++@@+++++++++++++++++.",
".++++++++++@@@@++++++++++++++++.",
".+++++++++@@@@@@+++++++++++++++.",
".++++++++@@@##@@@++++++++++++++.",
".+++++++@@@####@@@+++++++++++++.",
".++++++@@@######@@@+++++@++++++.",
".+++++@@@########@@@+++@@++++++.",
".+++++$$$#########@@@+@@@++++++.",
".++++++$$$#########@@@@#@++++++.",
".+++++++$$$#########@@##@++++++.",
".++++++++$$$############@++++++.",
".+++++++++$$$###########@++++++.",
".++++++++++$$$##########@++++++.",
".+++++++++++$$$#########@++++++.",
".++++++++++++$$@########@++++++.",
".+++++++++++++@@########@++++++.",
".++++++++++++@@#########@++++++.",
".+++++++++++@@##########@++++++.",
".++++++++++$$$$$$$$$$$$$$++++++.",
".++++++++++++++++++++++++++++++.",
".++++++++++++++++++++++++++++++.",
".++++++++++++++++++++++++++++++.",
".++++++++++++++++++++++++++++++.",
".++++++++++++++++++++++++++++++.",
".++++++++++++++++++++++++++++++.",
"................................",
".++++++++++++++++++++++++++++++.",
".++++++++++++++++++++++++++++++.",
".++++++++++++++++++++++++++++++.",
".++++++++++++++++++++++++++++++.",
".++++++++++++++++++++++++++++++.",
".++++++++++++++++++++++++++++++.",
".++++++++++$@@@@@@@@@++++++++++.",
".++++++++++$$@@@@@@@@++++++++++.",
".++++++++++$$######@@++++++++++.",
".++++++++++$$######@@++++++++++.",
".++++++++++$$######@@++++++++++.",
".++++++++++$$######@@++++++++++.",
".++++++++++$$######@@++++++++++.",
".++++++++++$$######@@++++++++++.",
".++++++++++$$######@@++++++++++.",
".++++++++++$$######@@++++++++++.",
".++++++++++$$######@@++++++++++.",
".+++++++$@@@@######@@@@@+++++++.",
".+++++++$$############@@+++++++.",
".++++++++$$##########@@++++++++.",
".+++++++++$$########@@+++++++++.",
".++++++++++$$######@@++++++++++.",
".+++++++++++$$####@@+++++++++++.",
".++++++++++++$$##@@++++++++++++.",
".+++++++++++++$$@@+++++++++++++.",
".++++++++++++++$$++++++++++++++.",
".++++++++++++++++++++++++++++++.",
".++++++++++++++++++++++++++++++.",
".++++++++++++++++++++++++++++++.",
".++++++++++++++++++++++++++++++.",
"................................",
".++++++++++++++++++++++++++++++.",
".++++++++++++++++++++++++++++++.",
".++++++++++++++++++++++++++++++.",
".++++++++++++++++++++++++++++++.",
".++++++++++++++++++++++++++++++.",
".+++++++++++++++++$@+++++++++++.",
".++++++++++++++++$$@@++++++++++.",
".+++++++++++++++$$$@@@+++++++++.",
".++++++++++++++$$$##@@@++++++++.",
".+++++++++++++$$$####@@@+++++++.",
".++++++$+++++$$$######@@@++++++.",
".++++++$@+++$$$########@@@+++++.",
".++++++$@@+$$$#########@@@+++++.",
".++++++$#@@$$#########@@@++++++.",
".++++++$##@@#########@@@+++++++.",
".++++++$############@@@++++++++.",
".++++++$###########@@@+++++++++.",
".++++++$##########@@@++++++++++.",
".++++++$#########@@@+++++++++++.",
".++++++$########@@@++++++++++++.",
".++++++$########@@+++++++++++++.",
".++++++$#########@@++++++++++++.",
".++++++$##########@@+++++++++++.",
".++++++$@@@@@@@@@@@@@++++++++++.",
".++++++++++++++++++++++++++++++.",
".++++++++++++++++++++++++++++++.",
".++++++++++++++++++++++++++++++.",
".++++++++++++++++++++++++++++++.",
".++++++++++++++++++++++++++++++.",
".++++++++++++++++++++++++++++++.",
"................................",
".++++++++++++++++++++++++++++++.",
".++++++++++++++++++++++++++++++.",
".++++++++++++++++++++++++++++++.",
".++++++++++++++++++++++++++++++.",
".++++++++++++++++++++++++++++++.",
".++++++++++++++++++++++++++++++.",
".++++++++++++++++++++++++++++++.",
".++++++++++++$$++++++++++++++++.",
".+++++++++++$$@++++++++++++++++.",
".++++++++++$$#@++++++++++++++++.",
".+++++++++$$##@$$$$$$$$$$$+++++.",
".++++++++$$###@$$$$$$$$$$@+++++.",
".+++++++$$##############@@+++++.",
".++++++$$###############@@+++++.",
".+++++$$################@@+++++.",
".+++++$@################@@+++++.",
".++++++@@###############@@+++++.",
".+++++++@@##############@@+++++.",
".++++++++@@###@@@@@@@@@@@@+++++.",
".+++++++++@@##@@@@@@@@@@@@+++++.",
".++++++++++@@#@++++++++++++++++.",
".+++++++++++@@@++++++++++++++++.",
".++++++++++++@@++++++++++++++++.",
".++++++++++++++++++++++++++++++.",
".++++++++++++++++++++++++++++++.",
".++++++++++++++++++++++++++++++.",
".++++++++++++++++++++++++++++++.",
".++++++++++++++++++++++++++++++.",
".++++++++++++++++++++++++++++++.",
".++++++++++++++++++++++++++++++.",
"................................",
".++++++++++++++++++++++++++++++.",
".++++++++++++++++++++++++++++++.",
".++++++++++++++++++++++++++++++.",
".++++++++++++++++++++++++++++++.",
".++++++++++++++++++++++++++++++.",
".++++++++++++++++++++++++++++++.",
".++++++$$$$$$$$$$$$$$++++++++++.",
".++++++@##########@@+++++++++++.",
".++++++@#########@@++++++++++++.",
".++++++@########@@+++++++++++++.",
".++++++@########@$$++++++++++++.",
".++++++@#########$$$+++++++++++.",
".++++++@##########$$$++++++++++.",
".++++++@###########$$$+++++++++.",
".++++++@############$$$++++++++.",
".++++++@##@@#########$$$+++++++.",
".++++++@#@@@@#########$$$++++++.",
".++++++@@@+@@@#########$$$+++++.",
".++++++@@+++@@@########@@@+++++.",
".++++++@+++++@@@######@@@++++++.",
".+++++++++++++@@@####@@@+++++++.",
".++++++++++++++@@@##@@@++++++++.",
".+++++++++++++++@@@@@@+++++++++.",
".++++++++++++++++@@@@++++++++++.",
".+++++++++++++++++@@+++++++++++.",
".++++++++++++++++++++++++++++++.",
".++++++++++++++++++++++++++++++.",
".++++++++++++++++++++++++++++++.",
".++++++++++++++++++++++++++++++.",
".++++++++++++++++++++++++++++++.",
"................................",
".++++++++++++++++++++++++++++++.",
".++++++++++++++++++++++++++++++.",
".++++++++++++++++++++++++++++++.",
".++++++++++++++++++++++++++++++.",
".++++++++++++++++++++++++++++++.",
".++++++++++++++++++++++++++++++.",
".++++++++++++++$$++++++++++++++.",
".+++++++++++++@@$$+++++++++++++.",
".++++++++++++@@##$$++++++++++++.",
".+++++++++++@@####$$+++++++++++.",
".++++++++++@@######$$++++++++++.",
".+++++++++@@########$$+++++++++.",
".++++++++@@##########$$++++++++.",
".+++++++@@############$$+++++++.",
".+++++++@@@@@######@@@@$+++++++.",
".++++++++++@@######$$++++++++++.",
".++++++++++@@######$$++++++++++.",
".++++++++++@@######$$++++++++++.",
".++++++++++@@######$$++++++++++.",
".++++++++++@@######$$++++++++++.",
".++++++++++@@######$$++++++++++.",
".++++++++++@@######$$++++++++++.",
".++++++++++@@######$$++++++++++.",
".++++++++++@@######$$++++++++++.",
".++++++++++@@@@@@@@$$++++++++++.",
".++++++++++@@@@@@@@@$++++++++++.",
".++++++++++++++++++++++++++++++.",
".++++++++++++++++++++++++++++++.",
".++++++++++++++++++++++++++++++.",
".++++++++++++++++++++++++++++++.",
"................................",
".++++++++++++++++++++++++++++++.",
".++++++++++++++++++++++++++++++.",
".++++++++++++++++++++++++++++++.",
".++++++++++++++++++++++++++++++.",
".++++++++++++++++++++++++++++++.",
".++++++++++++++++++++++++++++++.",
".++++++++++@@@@@@@@@@@@@$++++++.",
".+++++++++++@@##########$++++++.",
".++++++++++++@@#########$++++++.",
".+++++++++++++@@########$++++++.",
".++++++++++++@@@########$++++++.",
".+++++++++++@@@#########$++++++.",
".++++++++++@@@##########$++++++.",
".+++++++++@@@###########$++++++.",
".++++++++@@@############$++++++.",
".+++++++@@@#########@@##$++++++.",
".++++++@@@#########$$@@#$++++++.",
".+++++@@@#########$$$+@@$++++++.",
".+++++@@@########$$$+++@$++++++.",
".++++++@@@######$$$+++++$++++++.",
".+++++++@@@####$$$+++++++++++++.",
".++++++++@@@##$$$++++++++++++++.",
".+++++++++@@@$$$+++++++++++++++.",
".++++++++++@@$$++++++++++++++++.",
".+++++++++++@$+++++++++++++++++.",
".++++++++++++++++++++++++++++++.",
".++++++++++++++++++++++++++++++.",
".++++++++++++++++++++++++++++++.",
".++++++++++++++++++++++++++++++.",
".++++++++++++++++++++++++++++++.",
"................................",
".++++++++++++++++++++++++++++++.",
".++++++++++++++++++++++++++++++.",
".++++++++++++++++++++++++++++++.",
".++++++++++++++++++++++++++++++.",
".++++@$$$++++++++++++++@@@$++++.",
".++++@##$$++++++++++++@@##$++++.",
".++++@###$$++++++++++@@###$++++.",
".++++@@###$$++++++++@@###$$++++.",
".+++++@@###$$++++++@@###$$+++++.",
".++++++@@###$$++++@@###$$++++++.",
".+++++++@@###$$++@@###$$+++++++.",
".++++++++@@###$$@@###$$++++++++.",
".+++++++++@@###$@###$$+++++++++.",
".++++++++++@@######$$++++++++++.",
".+++++++++++@@####$$+++++++++++.",
".+++++++++++@@####$$+++++++++++.",
".++++++++++@@######$$++++++++++.",
".+++++++++@@###$@###$$+++++++++.",
".++++++++@@###$$@@###$$++++++++.",
".+++++++@@###$$++@@###$$+++++++.",
".++++++@@###$$++++@@###$$++++++.",
".+++++@@###$$++++++@@###$$+++++.",
".++++@@###$$++++++++@@###$$++++.",
".++++@###$$++++++++++@@###$++++.",
".++++@##$$++++++++++++@@##$++++.",
".++++@$$$++++++++++++++@@@$++++.",
".++++++++++++++++++++++++++++++.",
".++++++++++++++++++++++++++++++.",
".++++++++++++++++++++++++++++++.",
".++++++++++++++++++++++++++++++.",
"................................"};
