/* XPM */
static char *squid_xpm[] = {

/* width height num_colors chars_per_pixel */
"211 43 11 1",

/* Colors: */
" 	c None",
".	c #160C02",
"+	c #536A87",
"@	c #02FEFA",
"#	c #90A2A9",
"$	c #D93D09",
"%	c #2ECECE",
"&	c #2C4434",
"*	c #EEE9D3",
"=	c #CAA677",
"-	c #A8642B",

/* Pixels: */
"                                                                                                                                                                                                                   ",
"                                                                                                                                                                            .......                                ",
"                                                                                                                                                                          ..####*##...                             ",
"                                                                                                                                                                         .##*******=*#..                           ",
"                                                                                                                                                                        .###***********#.                          ",
"                                                                                                                                                                       .#+**************=.                         ",
"                                                                                                                                                                      .#+##=#-#=-****#****.                        ",
"                                                                                                                                                                    ..+#*#-+$#-+#-+=#****=#...                     ",
"                                                                                                                                                        ............#+=#+-&$.$$..##*********=#...                  ",
"                                                                        .........                     ...        ....                          .........###=#*#=#=#--#-+$..$.$.=#*************###.........         ",
"                                                                    ....#++$-+++#......            ...###........##*#....              ........#*#**=*****************---$.$..#=****************=*########...      ",
"                                                                  ..#.-$$$$--$$$$$$$-+#.....   ....###*##=+#####+*******=..............#=##==******************************=-#*****#=#=+###==#**=*********=##.     ",
"                                                               ...+.$.$$$$$-=$-$------$$-+##....###-*#%###*##*=-.********************=****************=*===--=-========-=*=#****#=+=#=---+-+$.-++-==*********#.    ",
"                                                            ...#&.$$$$-$$-$-=----.$----$-----#-=-=*=%+%%%=*+****.+***--=---+=---=-----------$-$$$$$$$$$$$$-$-$$------====-#=*+##&#-#-+-+&$$.$&.$..$.+#=#******#.   ",
"                                                           .+&&.-$+-#-####-==*====----$$.$$#=*====*##%****%##***+.*=$$.$$$$$$$$$$$$$$$$$$$$$$$$-$$$$-$$-$===-====*===**-#=*++-&-+&&+&.+$.&&..$.$.$..$.&+###****=.  ",
"                                                       ....--#-#==#+#&&.&&.&&&#===-+-$$-$-$$-=*#=*+%%*+&&#*=#**##.-=$$$$$$$$$$$$$$$$$$-$$$-$---=-===-=====*=*=******#-#*=##-+-+$$.$-+$-+-.-$--&-+$.......-#*#**=#. ",
"                                                     ..#+###=+=##%.....+-+&&...&-$--$--===#=*===*##%*+&...#*+%**#.+*-$$$$$$$$$$$$-$-----==-==-*====*=*=*********=##-**####&$#-#-$=#-#--++-+&+++&&&-+&$$--#$+#####. ",
"                                                   ..+$$&.+&#==+..    ..#=#-$$-----#-++&++&&#=*=*=+%*+....-*++*==&.*=$$$$$-$---=-=-=========*=*****************##*****=#-==-=-#-=---++-++&&.&.&.&.$$--==+#-+###..  ",
"                                                  .####+##++.$+.   ...+++-+-==-=-+&&&++&+&+.&+#***+%*&...&$*+++=-$.=*------=-===========*=********************#*****=#-=#-=#--=--+$$&.&.&$.$...$$-#==###.......    ",
"                                               ...%*####+-+#...  ..#==#-#--#-&++&&&.&....$==******+%*+&..&*%&&##=+.=*-=-========*=*==**=****************************-==-==-=-$$$.$.$........$$-===###...           ",
"                                            ...###*#%+##....    ..#-#+&&.&.&.&&&...&.-=*****=###**=&#*&&&*%&&$-$$$.**=====*=**=**********************************=-*=-===---$&.&$......&.$$-===###...              ",
"                                         ...###%##++&#..      ..#==#==$+$  .&.$$-===***==+&$.&$-#=#+.+***%&.&-$&$&.****=*=*=**********************************=*=*====-=$-.$.$.......$$-=*=####...                 ",
"                                       ..##*##%+++#...      ..####...$.   ..==****=#=-+.==-#$*****#=&&&&....$+$.$.$***=*=***********************************=**===#-=&$&...&..$.$.$-==*=#+##...                    ",
"           ...........              ....=%#%+&##...       ..=+=#..$     ..=-=---$$.$$.$=-$-****==#=++&&&.&.-.$.$.&***==#*==*=****************************=*====-==-$$$.$&.$.$$--==*=*####...                       ",
"         ..##+=##$####..          ...#=%*#+#=...        ..###=..      ..+$$$--$$.$$$=---*=*=*#+++++&&&..&-$$&.$&.&=#*==-=====*=*********************=*=-=-*===--$$$+$.$.$---==*=*#-###...                          ",
"       ..##*#-&++#*##+##..    ....##%*=++#...         ...$=#..   .....#=#-===#...$-$-=-*==+++++&...+$#...+-&+-&$&...#=#*=*-#=+-##-=#********=====-====-=-=$$#-$+-$-----=*==*=####.....                             ",
"      .++%%#+&&-+&##-#=$##....###*###&#...         ....#-#=.   ..+$$+----$=$..  ..$-+*=+=#.&&+-###....   .##-+##.   ..##+#*===*=*===-=-=-*-=#--===#-$=-=-#-=--====*=*===#####....                                  ",
" ..    ..&+&&&&&+&&%&+%&&#+%###%++&+...         ...$#==#=$.  ..-$...........   .=-*+==-#-=##......        ......      .....*=+#==*=****==*=============*=*=******=#..........                                      ",
".++...   .&&&.%...%.%&&&&&+&++&&&...           .&#+#=-#&..  .#-..            ..-$#==**=#....                               ........=#==*#=*=***=*==*=====#=#=*#....                                                ",
".++&##..  ..&..&%.%.&..&..&&++...            ..##+=+#+..   .#..         .....++*-#......                                           .......*#############.......                                                    ",
" .$+#***.   ..+#.&.&.&&&+.....              .##*##-...    ...    .......&+$#+-=...                                                        ..............                                                           ",
" .+..*#*=.    ...........                ...*#=#&&.               ..=+$.$&.&=..                                                                                                                                    ",
"  .##.+&**.                            ..#*=#+&#..                  .........                                                                                                                                      ",
"   .*.&+&#*.                        ...#####&...                                                                                                                                                                   ",
"    .+&.+&#*.                     ..+####&++.                                                                                                                                                                      ",
"     ...&&&==.                 ...@##+++&*..                                                                                                                                                                       ",
"       .+#&&&#..         ......#&#+++#&#..                                                                                                                                                                         ",
"        ..+#-+&+.........####+++++&#....                                                                                                                                                                           ",
"          ..+&&+&+#%&##+%+#+%&+#+&..                                                                                                                                                                               ",
"            ...&&&+++++&++&+###...                                                                                                                                                                                 ",
"               ...++#&+#+......                                                                                                                                                                                    ",
"                  .......                                                                                                                                                                                          ",
"                                                                                                                                                                                                                   "};
